{
  "@context": {
    "rdfs": "http://www.w3.org/2000/01/rdf-schema#",
    "owl": "http://www.w3.org/2002/07/owl#",
    "asawoo": "http://liris.cnrs.fr/asawoo/vocab#",
    "asawoo-f": "http://liris.cnrs.fr/asawoo/functionalities#"
  },
  "@graph": [
    {
      "@id": "asawoo-f:Motion",
      "@type": "owl:Class",
      "rdfs:subClassOf": { "@id": "asawoo:Functionality" }
    },
    {
      "@id": "asawoo-f:Camera",
      "@type": "owl:Class",
      "rdfs:subClassOf": { "@id": "asawoo:Functionality" }
    },
    {
      "@id": "asawoo-f:Led",
      "@type": "owl:Class",
      "rdfs:subClassOf": { "@id": "asawoo:Functionality" }
    },
    {
      "@id": "asawoo-f:PingNotification",
      "@type": "owl:Class",
      "rdfs:subClassOf": { "@id": "asawoo:Functionality" }
    },
    {
      "@id": "asawoo-f:Navigation",
      "@type": "owl:Class",
      "asawoo:isComposedOf":  {
        "@id": "_:navigation_comp"
      },
      "rdfs:subClassOf": { "@id": "asawoo:Functionality" }
    },
    {
      "@id": "_:navigation_comp",
      "http://www.w3.org/2002/07/owl#unionOf": {
        "@list": [
          { "@id": "asawoo-f:Motion" },
          { "@id": "asawoo-f:LocationService" }
        ]
      }
    },
    {
      "@id": "asawoo-f:PersonDetector",
      "@type": "owl:Class",
      "asawoo:isComposedOf": {
        "@id": "_:person_detector_comp"
      },
      "rdfs:subClassOf": { "@id": "asawoo:Functionality" }
    },
    {
      "@id": "_:person_detector_comp",
      "http://www.w3.org/2002/07/owl#unionOf": {
        "@list": [
          { "@id": "asawoo-f:Camera" }
        ]
      }
    },
    {
      "@id": "asawoo-f:VideoSurveillance",
      "@type": "owl:Class",
      "asawoo:isComposedOf": {
        "@id": "_:video_surveillance_comp"
      },
      "rdfs:subClassOf": { "@id": "asawoo:Functionality" }
    },
    {
      "@id": "_:video_surveillance_comp",
      "http://www.w3.org/2002/07/owl#unionOf": {
        "@list": [
          { "@id": "asawoo-f:PersonDetector" },
          { "@id": "asawoo-f:PingNotification" }
        ]
      }
    },
    {
      "@id": "asawoo-f:PatrolSurveillance",
      "@type": "owl:Class",
      "asawoo:isComposedOf": {
        "@id": "_:patrol_surveillance_comp"
      },
      "rdfs:subClassOf": { "@id": "asawoo:Functionality" }
    },
    {
      "@id": "_:patrol_surveillance_comp",
      "http://www.w3.org/2002/07/owl#unionOf": {
        "@list": [
          { "@id": "asawoo-f:PersonDetector" },
          { "@id": "asawoo-f:Navigation" },
          { "@id": "asawoo-f:Base" }
        ]
      }
    },
    {
      "@id": "asawoo-f:DataCollector",
      "@type": "owl:Class",
      "rdfs:subClassOf": { "@id": "asawoo:Functionality" }
    },
    {
      "@id": "asawoo-f:MobileDataCollector",
      "@type": "owl:Class",
      "asawoo:isComposedOf": {
        "@id": "_:data_collector_comp"
      },
      "rdfs:subClassOf": { "@id": "asawoo:Functionality" }
    },
    {
      "@id": "_:data_collector_comp",
      "http://www.w3.org/2002/07/owl#unionOf": {
        "@list": [
          { "@id": "asawoo-f:DataCollector"},
          { "@id": "asawoo-f:Base" }
        ]
      }
    },
    {
      "@id": "asawoo-f:GenericDataSensor",
      "@type": "owl:Class",
      "rdfs:subClassOf": { "@id": "asawoo:Functionality" }
    },
    {
      "@id": "asawoo-f:LocationService",
      "@type": "owl:Class",
      "rdfs:subClassOf": { "@id": "asawoo:Functionality" }
    },
    {
      "@id": "asawoo-f:Base",
      "@type": "owl:Class",
      "asawoo:isComposedOf": {
        "@id": "_:base_comp"
      },
      "rdfs:subClassOf": { "@id": "asawoo:Functionality" }
    },
    {
      "@id": "_:base_comp",
      "http://www.w3.org/2002/07/owl#unionOf": {
        "@list": [
          { "@id": "asawoo-f:Navigation" }
        ]
      }
    },
    {
      "@id": "asawoo-f:LocationHistory",
      "@type": "owl:Class",
      "asawoo:isComposedOf":  {
        "@id": "_:location_history_comp"
      },
      "rdfs:subClassOf": { "@id": "asawoo:Functionality" }
    },
    {
      "@id": "_:location_history_comp",
      "http://www.w3.org/2002/07/owl#unionOf": {
        "@list": [
          { "@id": "asawoo-f:LocationService" }
        ]
      }
    }
  ]
}
