{
  "@context": {
    "rdfs": "http://www.w3.org/2000/01/rdf-schema#",
    "owl": "http://www.w3.org/2002/07/owl#",
    "asawoo": "http://liris.cnrs.fr/asawoo/vocab#"
  },
  "@graph": [
    {
      "@id": "asawoo:isImplementedBy",
      "@type": "owl:ObjectProperty",
      "rdfs:domain": {
        "@id": "asawoo:Functionality"
      },
      "rdfs:range": {
        "@id": "asawoo:Capability"
      }
    },
    {
      "@id": "asawoo:isComposedOf",
      "@type": [
        "owl:ObjectProperty",
        "owl:TransitiveProperty"
      ],
      "rdfs:domain": {
          "@id": "asawoo:Functionality"
      },
      "rdfs:range": {
          "@id": "asawoo:Functionality"
      }
    },
    {
      "@id": "asawoo:Functionality",
      "@type": "owl:Class",
      "rdfs:subClassOf": {
          "@id": "http://www.w3.org/ns/sosa/Procedure"
      }
    },
    {
      "@id": "asawoo:Capability",
      "@type": "owl:Class",
      "rdfs:subClassOf": {
          "@id": "http://www.w3.org/ns/sosa/Procedure"
      }
    }
  ]
}
